{
    "data-layout": "e-m:e-i64:64-f80:128-n8:16:32:64-S128",
    "llvm-target": "x86_64-elf",
    "linker-flavor": "ld",
    "target-endian": "little",
    "target-pointer-width": "64",
    "target-word-size": "64",
    "pre-link-args": {"ld": ["-m64"] },
    "eliminate-frame-pointer": false,
    "arch": "x86_64",
    "os": "wayless",
    "no-default-libraries": true,
    "disable-redzone": true,
    "linker": "ld",
    "target-c-int-width": "32",
    "features": "",
    "panic-strategy": "abort",
    "morestack": false
}
